TidyTuesday 2025-11-18 - Sherlock Holmes – mark michael
…
The Complete Works of Sherlock Holmes

Introduction

Analysing literature with data science and numerical methods is a fun journey. A few years ago I read Nabokov’s favorite word is mauve by Ben Blatt. The methods for quantifying literature are both interesting and compelling, and I’m interested in seeing if there are similar patterns here. Sidenote: that book was described to me as “the most NPR book ever,” and I love that.

My first step is to explore samples of the data to see if it’s usable as is.

books <- data |>
  distinct(book) |>
  mutate(publish_order = row_number())
print(books)

# A tibble: 48 × 2
   book                                publish_order
   <chr>                                       <int>
 1 A Study In Scarlet                              1
 2 The Sign of the Four                            2
 3 A Scandal in Bohemia                            3
 4 The Red-Headed League                           4
 5 A Case of Identity                              5
 6 The Boscombe Valley Mystery                     6
 7 The Five Orange Pips                            7
 8 The Man with the Twisted Lip                    8
 9 The Adventure of the Blue Carbuncle             9
10 The Adventure of the Speckled Band             10
# ℹ 38 more rows

text_sample <- data[2000:2100,]

print(text_sample)

# A tibble: 101 × 3
   book               text                                              line_num
   <chr>              <chr>                                                <dbl>
 1 A Study In Scarlet "\"'You had best tell me all about it now,' I sa…     2000
 2 A Study In Scarlet "are worse than none. Besides, you do not know h…     2001
 3 A Study In Scarlet "it.'"                                                2002
 4 A Study In Scarlet  <NA>                                                 2003
 5 A Study In Scarlet "\"'On your head be it, Alice!' cried her mother…     2004
 6 A Study In Scarlet "me, 'I will tell you all, sir. Do not imagine t…     2005
 7 A Study In Scarlet "behalf of my son arises from any fear lest he s…     2006
 8 A Study In Scarlet "in this terrible affair. He is utterly innocent…     2007
 9 A Study In Scarlet "however, that in your eyes and in the eyes of o…     2008
10 A Study In Scarlet "be compromised. That however is surely impossib…     2009
# ℹ 91 more rows
…
F. Scott Fitzgerald and Earnest Hemingway were known for their very resvered use of exclamation points. Fizgerald describes it as “Laughing at your own joke.” We can use this data to determine how well Arthur Conan Doyle follows this rule.

exclamation_points <- paragraphs |>
  mutate(exclamation_points = str_count(text, "!"))

exclamation_point_sample <- exclamation_points |>
  filter(exclamation_points > 0) |>
  slice_sample(n = 5)

### showing some example lines as a sanity check to make sure our code is working

print(exclamation_point_sample)

# A tibble: 240 × 4
# Groups:   book [48]
   book                 paragraph text                        exclamation_points
   <chr>                    <int> <chr>                                    <int>
 1 A Case of Identity        2195 "\"Certainly,\" said Holme…                  1
 2 A Case of Identity        2131 "\"Ha! that was unfortunat…                  1
 3 A Case of Identity        2197 "\"Oh, it won't do--really…                  1
 4 A Case of Identity        2207 "\"There's a cold-blooded …                  1
 5 A Case of Identity        2196 "\"What! where?\" shouted …                  1
 6 A Scandal in Bohemia      1847 "\"What a woman--oh, what …                  1
 7 A Scandal in Bohemia      1671 "\"Pooh, pooh! Forgery.\""                   1
 8 A Scandal in Bohemia      1754 "\"Oh, the cause is excell…                  1
 9 A Scandal in Bohemia      1829 "\"Married! When?\""                         1
10 A Scandal in Bohemia      1621 "\"Quite so! You have not …                  1
# ℹ 230 more rows

exclamation_points_summary <- exclamation_points |>
  group_by(book) |>
  summarize(exclamation_points = sum(exclamation_points)) |>
  left_join(books, by = "book") |>
  arrange(desc(exclamation_points))

### actually counting exclamation points

print(exclamation_points_summary)

# A tibble: 48 × 3
   book                                        exclamation_points publish_order
   <chr>                                                    <int>         <int>
 1 The Valley Of Fear                                         319            40
 2 The Hound of the Baskervilles                              182            39
 3 The Sign of the Four                                       127             2
 4 A Study In Scarlet                                          85             1
 5 The Adventure of the Second Stain                           49            38
 6 The Adventure of the Solitary Cyclist                       48            29
 7 The Adventure of the Red Circle                             46            43
 8 The Adventure of the Dying Detective                        45            45
 9 The Adventure of the Beryl Coronet                          43            13
10 The Adventure of the Bruce-Partington Plans                 43            44
# ℹ 38 more rows
